{
  "seed": "1234",
  "worker_n": 256,
  "cuda_device": "cpu",

  "dt": 0.1,

  "num_maps": 4,
  "num_traj_per_map": 4,

  "state_machine_hidden_sizes": "32 32 32",
  "state_machine_learning_rate": 0.001,
  "state_machine_partition_size": 2,
  "state_machine_batch_size": 1024,
  "state_machine_min_island_size": 4,
  "state_machine_autoencoder_latent_size": 8,
  "state_machine_prunning_error_tolerance": 0.04,
  "state_machine_model_mode_iter_n": 1000,
  "state_machine_cluster_dimensionality_reduce": 0,
  "state_machine_information_content_regularization_scale": 1e-05,
  "state_machine_mutual_information_regularization_scale": 0.00001,
  "state_machine_mutual_information_mini_batch_size": 32,

  "state_machine_predicate_hyperparameters" : {
    "max_depth": 8
  },


  "state_machine_local_model_hyperparameters" : {
    "hidden_layer_sizes": [32, 32],
    "max_iter": 500

  },

  "env_id": "BipedalWalkerHardcoreModes-v3",

  "environment_specific_hyperparameters": {
    "mpc_iter_n": 40,
    "mpc_plan_len": 3,
    "mpc_initial_stdev": "0.5",
    "simulation_step_n": 250
  }
}


